
-- TAS03 : Test ERR_SUBQUERY_ONE_COLUMN error for ARRAY constructor with subquery returning more than one column

SELECT ARRAY(VALUES(1,2,3)) from names;
SELECT ARRAY(SELECT id, id from names);
SELECT ARRAY(SELECT id, id from names UNION SELECT id, id from names);

[ERROR]: ERR_SUBQUERY_ONE_COLUMN: Subquery must return only one column
[ERROR]: ERR_SUBQUERY_ONE_COLUMN: Subquery must return only one column
LINE 4:1: SELECT ARRAY(SELECT id, id from names);
                       ^^^^^^
[ERROR]: ERR_SUBQUERY_ONE_COLUMN: Subquery must return only one column
LINE 5:1: SELECT ARRAY(SELECT id, id from names UNION SELECT id, id from n...
                       ^^^^^^
