
-- TAS02 : Issue error for ARRAY constructor with subquery returning more than one column

SELECT ARRAY(SELECT * FROM names);
[ERROR]: ERR_SUBQUERY_ONE_COLUMN: Subquery must return only one column
LINE 3:1: SELECT ARRAY(SELECT * FROM names);
                       ^^^^^^
