

-- TC046 : OCTO502 : Allow READWRITE table with column-level DELIM of "" if there is only 1 non-primary-key column
-- Also test that PIECE number (specified as "PIECE 5" below) is ignored when DELIM "" is specified.

CREATE TABLE tmp (id INTEGER PRIMARY KEY, firstName VARCHAR DELIM "" PIECE 5) READWRITE;
-- Insert values where firstName column has default delimiter "|" in it and verify those show up in the column value
-- instead of getting filtered out (which they would if a $piece was done to extract the column value).
INSERT INTO tmp VALUES (1, 'first|1');
INSERT INTO tmp VALUES (2, 'second|2');
SELECT * FROM tmp;
SELECT firstName from tmp;
DROP TABLE tmp;

-- Test that having just one non-key column automatically adds the DELIM "" and that output is same as before.
CREATE TABLE tmp (id INTEGER PRIMARY KEY, firstName VARCHAR) READWRITE;
INSERT INTO tmp VALUES (1, 'first|1');
INSERT INTO tmp VALUES (2, 'second|2');
SELECT * FROM tmp;
SELECT firstName from tmp;
DROP TABLE tmp;

CREATE TABLE
INSERT 0 1
INSERT 0 1
id|firstname
1|first|1
2|second|2
(2 rows)
firstname
first|1
second|2
(2 rows)
DROP TABLE
CREATE TABLE
INSERT 0 1
INSERT 0 1
id|firstname
1|first|1
2|second|2
(2 rows)
firstname
first|1
second|2
(2 rows)
DROP TABLE
