
-- TC052 : OCTO837 : pg_enum and pg_range are minimally supported (empty)
select * from pg_range;
select * from pg_enum;
rngsubtype|rngcollation|rngsubopc|rngcanonical|rngsubdiff|rngtypid
(0 rows)
enumtypid|enumsortorder|enumlabel|oid
(0 rows)
