
-- TCF013 : OCTO345 : Sub-queries in expressions work with CREATEd functions

select ABS(-id)+(select 2 from names limit 1) as absid from names;
select ABS(-id)-(select 2 from names limit 1) as absid from names;
select ABS(-id)*(select 2 from names limit 1) as absid from names;
select ABS(-id)/(select 2 from names limit 1) as absid from names;
select ABS(-id)%(select 2 from names limit 1) as absid from names;
absid
2
3
4
5
6
7
(6 rows)
absid
-2
-1
0
1
2
3
(6 rows)
absid
0
2
4
6
8
10
(6 rows)
absid
0
.5
1
1.5
2
2.5
(6 rows)
absid
0
1
0
1
0
1
(6 rows)
