
-- TCF000 : OCTO671 : Test of ERR_CANNOT_CREATE_FUNCTION error.

CREATE FUNCTION ABS(INTEGER) RETURNS NUMERIC AS $$ABS^%ydboctosqlfunctions;
CREATE FUNCTION ABS(NUMERIC) RETURNS NUMERIC AS $$ABS^%ydboctosqlfunctions;

[ERROR]: ERR_CANNOT_CREATE_FUNCTION: Function "abs(INTEGER)" already exists with same argument types
[ERROR]: ERR_CANNOT_CREATE_FUNCTION: Function "abs(NUMERIC)" already exists with same argument types
