
-- TCF016 : OCTO345 : CREATE FUNCTION with alternative type names

DROP FUNCTION ABS(INT);
CREATE FUNCTION ABS(INT) RETURNS DEC AS $$ABS^%ydboctosqlfunctions;
SELECT ABS(-1) FROM names;

DROP FUNCTION ABS(SMALLINT);
CREATE FUNCTION ABS(SMALLINT) RETURNS DECIMAL AS $$ABS^%ydboctosqlfunctions;
SELECT ABS(-2) FROM names;
DROP FUNCTION
CREATE FUNCTION
abs
1
1
1
1
1
1
(6 rows)
DROP FUNCTION
CREATE FUNCTION
abs
2
2
2
2
2
2
(6 rows)
