
-- TCK05 : OCTO877 : Incorrect results if WHERE clause references multiple columns of composite table

-- Test of https://gitlab.com/YottaDB/DBMS/YDBOcto/-/issues/877#note_1039304146
SELECT ALL alias2.id3 FROM composite  INNER JOIN composite AS alias1 ON ((composite.name != alias1.name) OR (4 <= NULL)) INNER JOIN composite AS alias2 ON (((composite.id2 = alias2.id3)) AND ((composite.name = alias2.name))) WHERE composite.id6 BETWEEN 6 AND 8 ORDER BY alias2.id3 LIMIT 28;

id3
(0 rows)
