
-- TDF003 : OCTO562 : DROP FUNCTION works with parameterless functions

-- Test DROP FUNCTION with parentheses for paramater type list
CREATE FUNCTION PARMLESSFUNC() RETURNS VARCHAR AS $$^PARMLESSFUNC;
SELECT PARMLESSFUNC() FROM names;
DROP FUNCTION PARMLESSFUNC ();
SELECT PARMLESSFUNC() FROM names;

-- Test DROP FUNCTION without parentheses for paramater type list
CREATE FUNCTION PARMLESSFUNC() RETURNS VARCHAR AS $$^PARMLESSFUNC;
SELECT PARMLESSFUNC() FROM names;
DROP FUNCTION PARMLESSFUNC;
SELECT PARMLESSFUNC() FROM names;

CREATE FUNCTION
parmlessfunc
SUCCESS
SUCCESS
SUCCESS
SUCCESS
SUCCESS
SUCCESS
(6 rows)
DROP FUNCTION
[ERROR]: ERR_UNKNOWN_FUNCTION: No function parmlessfunc defined with given parameter types (none)
LINE 6:1: SELECT PARMLESSFUNC() FROM names;
                 ^^^^^^^^^^^^
CREATE FUNCTION
parmlessfunc
SUCCESS
SUCCESS
SUCCESS
SUCCESS
SUCCESS
SUCCESS
(6 rows)
DROP FUNCTION
[ERROR]: ERR_UNKNOWN_FUNCTION: No function parmlessfunc defined with given parameter types (none)
LINE 11:1: SELECT PARMLESSFUNC() FROM names;
                  ^^^^^^^^^^^^
Remaining function definitions (hashes):
Successfully deleted function "parmlessfunc" from pg_catalog.pg_proc
