
select * from (select * from names) n1 where n1.* in (select * from names);
select * from names n1 where n1.id in (select * from names);
select * from names n1 where n1.firstname in (select * from names);
select * from names n1 where n1.id in (select n2.* from names n2);
select * from names n1 order by n1.firstname in (select * from names);
select 1 from names n1 having n1.firstname in (select * from names);
select * from names n1 order by n1.firstname in ((select id, firstname from names) UNION (select id, firstname from names));
select * from names n1 order by n1.id in (VALUES('test','firstname'));
select * from names n1 order by n1.firstname in (((select 1, 'test')UNION(select 2, 'test')) UNION (select id, firstname from names));
select 'test' NOT IN (NULL,(select n1.id,n1.id)) from names n1;
select * from names n1 where (select * from names) in (n1.id);
select * from names n1 where (select id from names) in (n1.id);
select * from names n1 where (select * from names limit 1) in (n1.id);

-- Create function related test case
CREATE FUNCTION SAMEVALUE(INTEGER) RETURNS INTEGER AS $$samevalue^functions;
select samevalue((select id,id)) from names;

-- Join Statement related test case
-- -- Below query should issue `ERR_SUBQUERY_ONE_COLUMN` error
select 1 from names left join names n2 on (select names.firstname,n2.firstname);
-- -- Below query is to ensure that `ERR_TYPE_NOT_COMPATIBLE` error issue logic has not been modified
-- -- This query is expected to issue `ERR_TYPE_NOT_COMPATIBLE` error
select 1 from names left join names n2 on (select names.firstname);

-- value_STATEMENT-> CALCULATED_VALUE related test case
select count((select names.firstname,names.firstname)) from names;

-- value_STATEMENT -> COERCE_TYPE related test case
select (select names.firstname,names.firstname)::VARCHAR from names;

-- table_value_STATEMENT
select (VALUES(1,2));
select (VALUES((select 1,2),2));
select (VALUES((select 1,2)));
[ERROR]: ERR_SUBQUERY_ONE_COLUMN: Subquery must return only one column
LINE 2:1: ...om (select * from names) n1 where n1.* in (select * from names);
                                                        ^^^^^^
[ERROR]: ERR_SUBQUERY_ONE_COLUMN: Subquery must return only one column
LINE 3:1: select * from names n1 where n1.id in (select * from names);
                                                 ^^^^^^
[ERROR]: ERR_SUBQUERY_ONE_COLUMN: Subquery must return only one column
LINE 4:1: ...ect * from names n1 where n1.firstname in (select * from names);
                                                        ^^^^^^
[ERROR]: ERR_SUBQUERY_ONE_COLUMN: Subquery must return only one column
LINE 5:1: ...lect * from names n1 where n1.id in (select n2.* from names n2);
                                                  ^^^^^^
[ERROR]: ERR_SUBQUERY_ONE_COLUMN: Subquery must return only one column
LINE 6:1: ... * from names n1 order by n1.firstname in (select * from names);
                                                        ^^^^^^
[ERROR]: ERR_GROUP_BY_OR_AGGREGATE_FUNCTION: Column 'firstname' must appear in the GROUP BY clause or be used in an aggregate function
LINE 7:1: ...ct 1 from names n1 having n1.firstname in (select * from names);
                                       ^^^^^^^^^^^^
[ERROR]: ERR_SUBQUERY_ONE_COLUMN: Subquery must return only one column
LINE 8:1: ...1 order by n1.firstname in ((select id, firstname from names) UN...
                                          ^^^^^^
[ERROR]: ERR_SUBQUERY_ONE_COLUMN: Subquery must return only one column
[ERROR]: ERR_SUBQUERY_ONE_COLUMN: Subquery must return only one column
LINE 10:1: ... order by n1.firstname in (((select 1, 'test')UNION(select 2, 't...
                                           ^^^^^^
[ERROR]: ERR_SUBQUERY_ONE_COLUMN: Subquery must return only one column
LINE 11:1: select 'test' NOT IN (NULL,(select n1.id,n1.id)) from names n1;
                                      ^^^^^^^^^^^^^^^^^^^^
[ERROR]: ERR_SUBQUERY_ONE_COLUMN: Subquery must return only one column
LINE 12:1: select * from names n1 where (select * from names) in (n1.id);
                                         ^^^^^^
[ERROR]: ERR_SUBQUERY_MULTIPLE_ROWS: More than one row returned by a subquery used as an expression
[ERROR]: ERR_SUBQUERY_ONE_COLUMN: Subquery must return only one column
LINE 14:1: ...elect * from names n1 where (select * from names limit 1) in (n1...
                                           ^^^^^^
CREATE FUNCTION
[ERROR]: ERR_SUBQUERY_ONE_COLUMN: Subquery must return only one column
LINE 17:1: select samevalue((select id,id)) from names;
                            ^^^^^^^^^^^^^^
[ERROR]: ERR_SUBQUERY_ONE_COLUMN: Subquery must return only one column
LINE 19:1: ...es left join names n2 on (select names.firstname,n2.firstname);
                                       ^^^^^^^^^^^^^^^^^^^^^^^^^^^^^^^^^^^^^
[ERROR]: ERR_TYPE_NOT_COMPATIBLE: Type VARCHAR not compatible for boolean operations
LINE 20:1: ...ect 1 from names left join names n2 on (select names.firstname);
                                                     ^^^^^^^^^^^^^^^^^^^^^^^^
[ERROR]: ERR_SUBQUERY_ONE_COLUMN: Subquery must return only one column
LINE 22:1: ...elect count((select names.firstname,names.firstname)) from names...
                          ^^^^^^^^^^^^^^^^^^^^^^^^^^^^^^^^^^^^^^^^
[ERROR]: ERR_SUBQUERY_ONE_COLUMN: Subquery must return only one column
LINE 24:1: select (select names.firstname,names.firstname)::VARCHAR from na...
                   ^^^^^^
[ERROR]: ERR_SUBQUERY_ONE_COLUMN: Subquery must return only one column
LINE 26:1: select (VALUES(1,2));
                  ^^^^^^^^^^^^^
[ERROR]: ERR_SUBQUERY_ONE_COLUMN: Subquery must return only one column
LINE 27:1: select (VALUES((select 1,2),2));
                  ^^^^^^^^^^^^^^^^^^^^^^^^
[ERROR]: ERR_SUBQUERY_ONE_COLUMN: Subquery must return only one column
LINE 28:1: select (VALUES((select 1,2)));
                           ^^^^^^
