
-- TSO05 : EXCEPT removes items from second set in the first set

select firstName, lastName from names
except
select firstName, lastName from names where firstName = 'Zero';

firstname|lastname
Acid|Burn
Joey|
Lord|Nikon
Cereal|Killer
(4 rows)
