
-- TSO02 : UNION ALL returns combined rows with duplicates

select firstName, lastName from names union all select firstName, lastName from names;

firstname|lastname
Zero|Cool
Acid|Burn
Cereal|Killer
Lord|Nikon
Joey|
Zero|Cool
Zero|Cool
Acid|Burn
Cereal|Killer
Lord|Nikon
Joey|
Zero|Cool
(12 rows)
