
-- TSO01 : UNION returns combined rows with no duplicates

select firstName, lastName from names union select firstName, lastName from names;

firstname|lastname
Zero|Cool
Acid|Burn
Cereal|Killer
Lord|Nikon
Joey|
(5 rows)
