# Run SELECT query that generates xref plan and creates AIM triggers
id|firstname|lastname
0|Zero|Cool
5|Zero|Cool
(2 rows)
# Remove generated xref plans
# Run UPDATE queries that will need the triggers

-- TUT006 : OCTO579 : Test that UPDATE after xref plan files get deleted, generates no errors

UPDATE names n1 SET firstname = firstname || '?' WHERE n1.id IN (SELECT n2.id FROM names n2 ORDER BY n2.id DESC LIMIT 3);
UPDATE names SET firstname = firstname || '#' WHERE id IN (SELECT id FROM names ORDER BY id DESC LIMIT 3);

UPDATE 3
UPDATE 3
