
-- TVD0002 : Test INSERT INTO, DELETE FROM, UPDATE queries against ORDER1 table are disallowed due to READ_ONLY

INSERT INTO ORDER1(ORDER1_ID) VALUES(-1);
DELETE FROM ORDER1;
UPDATE ORDER1 SET ORDER1_ID = ORDER1_ID;

[ERROR]: ERR_TABLE_READONLY: INSERT not allowed on READONLY table "order1". Only allowed on READWRITE tables.
[ERROR]: ERR_TABLE_READONLY: DELETE not allowed on READONLY table "order1". Only allowed on READWRITE tables.
[ERROR]: ERR_TABLE_READONLY: UPDATE not allowed on READONLY table "order1". Only allowed on READWRITE tables.
