Test ENDPOINT with a space
-- Test various ENDPOINTs with AIM: Test space
DROP TABLE IF EXISTS `ORDER_STATUS`;
CREATE TABLE `ORDER_STATUS` (
 `ORDER_STATUS_ID` INTEGER PRIMARY KEY START 0 ENDPOINT '" "',
 `NAME` CHARACTER(20) NOT NULL GLOBAL "^ORD(100.01,keys(""order_status_id""),0)" PIECE 1,
 `SHORT_NAME` CHARACTER(4) GLOBAL "^ORD(100.01,keys(""order_status_id""),0)" PIECE 2,
 `ABBREVIATION` CHARACTER(3) GLOBAL "^ORD(100.01,keys(""order_status_id""),.1)" EXTRACT "$E($G(^ORD(100.01,keys(""order_status_id""),.1)),1,245)",
 `MASTER_ENTRY_FOR_VUID` CHARACTER(3) GLOBAL "^ORD(100.01,keys(""order_status_id""),""VUID"")" PIECE 2,
 `VUID` CHARACTER(20) GLOBAL "^ORD(100.01,keys(""order_status_id""),""VUID"")" PIECE 1
)
GLOBAL "^ORD(100.01,keys(""order_status_id""))"
DELIM "^";
SELECT * FROM `ORDER_STATUS` WHERE SHORT_NAME = 'flag';
DROP TABLE
CREATE TABLE
order_status_id|name|short_name|abbreviation|master_entry_for_vuid|vuid
4|FLAGGED|flag|"?"|1|4501095
(1 row)
^%ydbAIMDs5rFrVUkFVChje0N5hPDK3(2,"actv",6)=""
^%ydbAIMDs5rFrVUkFVChje0N5hPDK3(2,"canc",13)=""
^%ydbAIMDs5rFrVUkFVChje0N5hPDK3(2,"comp",2)=""
^%ydbAIMDs5rFrVUkFVChje0N5hPDK3(2,"dc",1)=""
^%ydbAIMDs5rFrVUkFVChje0N5hPDK3(2,"dc/e",12)=""
^%ydbAIMDs5rFrVUkFVChje0N5hPDK3(2,"dlay",10)=""
^%ydbAIMDs5rFrVUkFVChje0N5hPDK3(2,"exp",7)=""
^%ydbAIMDs5rFrVUkFVChje0N5hPDK3(2,"flag",4)=""
^%ydbAIMDs5rFrVUkFVChje0N5hPDK3(2,"hold",3)=""
^%ydbAIMDs5rFrVUkFVChje0N5hPDK3(2,"laps",14)=""
^%ydbAIMDs5rFrVUkFVChje0N5hPDK3(2,"none",99)=""
^%ydbAIMDs5rFrVUkFVChje0N5hPDK3(2,"part",9)=""
^%ydbAIMDs5rFrVUkFVChje0N5hPDK3(2,"pend",5)=""
^%ydbAIMDs5rFrVUkFVChje0N5hPDK3(2,"rnew",15)=""
^%ydbAIMDs5rFrVUkFVChje0N5hPDK3(2,"schd",8)=""
^%ydbAIMDs5rFrVUkFVChje0N5hPDK3(2,"unr",11)=""
^%ydbAIMDs5rFrVUkFVChje0N5hPDK3(6)="+^ORD(sub1=100.01,sub2=0:"" "",sub3=0) -command=set -name=%ydbs5rFrVUkFVChje0N5hPDK3S -xecute=<<"_$C(10)_" set inccnt=0"_$C(10)_" for i=2 set p=$piece($ztoldval,""^"",i),q=$piece($ztvalue,""^"",i),j=-i do"_$C(10)_" . if p'=q do"_$C(10)_" . . if $data(^%ydbAIMDs5rFrVUkFVChje0N5hPDK3(i,p,sub2))#10 zkill ^(sub2) set inccnt=inccnt-1 if 1>$increment(^%ydbAIMDs5rFrVUkFVChje0N5hPDK3(j,p),-1) zkill ^(p) if 1>$increment(^%ydbAIMDs5rFrVUkFVChje0N5hPDK3(j),-1) zkill ^(j)"_$C(10)_" . . if '($data(^%ydbAIMDs5rFrVUkFVChje0N5hPDK3(i,q,sub2))#10) set ^(sub2)="""" set inccnt=inccnt+1 if (1=$increment(^%ydbAIMDs5rFrVUkFVChje0N5hPDK3(j,q))),$increment(^%ydbAIMDs5rFrVUkFVChje0N5hPDK3(j))"_$C(10)_" . else  if '$zlength(q),'($data(^%ydbAIMDs5rFrVUkFVChje0N5hPDK3(i,"""",sub2))#10) set ^(sub2)="""" set inccnt=inccnt+1 if (1=$increment(^%ydbAIMDs5rFrVUkFVChje0N5hPDK3(j,""""))),$increment(^%ydbAIMDs5rFrVUkFVChje0N5hPDK3(j))"_$C(10)_" if inccnt set inccnt=inccnt+^%ydbAIMDs5rFrVUkFVChje0N5hPDK3(11),^(11)=$select(1>inccnt:0,1:inccnt)"_$C(10)
^%ydbAIMDs5rFrVUkFVChje0N5hPDK3(7)="+^ORD(sub1=100.01,sub2=0:"" "",sub3=0) -command=kill -name=%ydbs5rFrVUkFVChje0N5hPDK3K -xecute=<<"_$C(10)_" do dft($reference) quit"_$C(10)_" if ^%ydbAIMDs5rFrVUkFVChje0N5hPDK3"_$C(10)_"dft(var)"_$C(10)_" new sub,vard,vars,varsd,vsroot"_$C(10)_" set vard=$data(@var)"_$C(10)_" do:vard\10"_$C(10)_" . if $qlength(var) set vsroot=$zextract(var,1,$zlength(var)-1)_"","""_$C(10)_" . else  set vsroot=var_""("""_$C(10)_" . set vars=vsroot_""sub)"""_$C(10)_" . set sub="""" for  do  set sub=$order(@vars) quit:'$zlength(sub)"_$C(10)_" . . set varsd=$data(@vars)"_$C(10)_" . . if varsd\10 do dft(vsroot_$zwrite(sub)_"")"")"_$C(10)_" . . else  kill:varsd#10 @(vsroot_$zwrite(sub)_"")"")"_$C(10)_" zkill:vard#10 @var"_$C(10)_" quit"_$C(10)
^%ydbAIMDs5rFrVUkFVChje0N5hPDK3(8)="+^ORD(sub1=100.01,sub2=0:"" "",sub3=0) -command=zkill -name=%ydbs5rFrVUkFVChje0N5hPDK3Z -xecute=<<"_$C(10)_" set inccnt=0"_$C(10)_" for i=2 set j=-i,p=$piece($ztoldval,""^"",i) if $data(^%ydbAIMDs5rFrVUkFVChje0N5hPDK3(i,p,sub2)) zkill ^(sub2) set inccnt=inccnt-1 if 1>$increment(^%ydbAIMDs5rFrVUkFVChje0N5hPDK3(j,p),-1) zkill ^(p) zkill:1>$increment(^%ydbAIMDs5rFrVUkFVChje0N5hPDK3(j),-1) ^(j)"_$C(10)_" if inccnt set inccnt=inccnt+^%ydbAIMDs5rFrVUkFVChje0N5hPDK3(11),^(11)=$select(1>inccnt:0,1:inccnt)"_$C(10)
_ydboctoX*.m:    NEW global SET global=$NAME(^ORD(100.01,$zwrite(0)_":"_$zwrite(" "),0))

Test ENDPOINT with a "A"
-- Test various ENDPOINTs with AIM: Test "A"
DROP TABLE IF EXISTS `ORDER_STATUS`;
CREATE TABLE `ORDER_STATUS` (
 `ORDER_STATUS_ID` INTEGER PRIMARY KEY START 0 ENDPOINT '"A"',
 `NAME` CHARACTER(20) NOT NULL GLOBAL "^ORD(100.01,keys(""order_status_id""),0)" PIECE 1,
 `SHORT_NAME` CHARACTER(4) GLOBAL "^ORD(100.01,keys(""order_status_id""),0)" PIECE 2,
 `ABBREVIATION` CHARACTER(3) GLOBAL "^ORD(100.01,keys(""order_status_id""),.1)" EXTRACT "$E($G(^ORD(100.01,keys(""order_status_id""),.1)),1,245)",
 `MASTER_ENTRY_FOR_VUID` CHARACTER(3) GLOBAL "^ORD(100.01,keys(""order_status_id""),""VUID"")" PIECE 2,
 `VUID` CHARACTER(20) GLOBAL "^ORD(100.01,keys(""order_status_id""),""VUID"")" PIECE 1
)
GLOBAL "^ORD(100.01,keys(""order_status_id""))"
DELIM "^";
SELECT * FROM `ORDER_STATUS` WHERE SHORT_NAME = 'flag';
DROP TABLE
CREATE TABLE
order_status_id|name|short_name|abbreviation|master_entry_for_vuid|vuid
4|FLAGGED|flag|"?"|1|4501095
(1 row)
^%ydbAIMDPgQyctQBh0d91zI84zuF52(2,"actv",6)=""
^%ydbAIMDPgQyctQBh0d91zI84zuF52(2,"canc",13)=""
^%ydbAIMDPgQyctQBh0d91zI84zuF52(2,"comp",2)=""
^%ydbAIMDPgQyctQBh0d91zI84zuF52(2,"dc",1)=""
^%ydbAIMDPgQyctQBh0d91zI84zuF52(2,"dc/e",12)=""
^%ydbAIMDPgQyctQBh0d91zI84zuF52(2,"dlay",10)=""
^%ydbAIMDPgQyctQBh0d91zI84zuF52(2,"exp",7)=""
^%ydbAIMDPgQyctQBh0d91zI84zuF52(2,"flag",4)=""
^%ydbAIMDPgQyctQBh0d91zI84zuF52(2,"hold",3)=""
^%ydbAIMDPgQyctQBh0d91zI84zuF52(2,"laps",14)=""
^%ydbAIMDPgQyctQBh0d91zI84zuF52(2,"none",99)=""
^%ydbAIMDPgQyctQBh0d91zI84zuF52(2,"part",9)=""
^%ydbAIMDPgQyctQBh0d91zI84zuF52(2,"pend",5)=""
^%ydbAIMDPgQyctQBh0d91zI84zuF52(2,"rnew",15)=""
^%ydbAIMDPgQyctQBh0d91zI84zuF52(2,"schd",8)=""
^%ydbAIMDPgQyctQBh0d91zI84zuF52(2,"unr",11)=""
^%ydbAIMDPgQyctQBh0d91zI84zuF52(6)="+^ORD(sub1=100.01,sub2=0:""A"",sub3=0) -command=set -name=%ydbPgQyctQBh0d91zI84zuF52S -xecute=<<"_$C(10)_" set inccnt=0"_$C(10)_" for i=2 set p=$piece($ztoldval,""^"",i),q=$piece($ztvalue,""^"",i),j=-i do"_$C(10)_" . if p'=q do"_$C(10)_" . . if $data(^%ydbAIMDPgQyctQBh0d91zI84zuF52(i,p,sub2))#10 zkill ^(sub2) set inccnt=inccnt-1 if 1>$increment(^%ydbAIMDPgQyctQBh0d91zI84zuF52(j,p),-1) zkill ^(p) if 1>$increment(^%ydbAIMDPgQyctQBh0d91zI84zuF52(j),-1) zkill ^(j)"_$C(10)_" . . if '($data(^%ydbAIMDPgQyctQBh0d91zI84zuF52(i,q,sub2))#10) set ^(sub2)="""" set inccnt=inccnt+1 if (1=$increment(^%ydbAIMDPgQyctQBh0d91zI84zuF52(j,q))),$increment(^%ydbAIMDPgQyctQBh0d91zI84zuF52(j))"_$C(10)_" . else  if '$zlength(q),'($data(^%ydbAIMDPgQyctQBh0d91zI84zuF52(i,"""",sub2))#10) set ^(sub2)="""" set inccnt=inccnt+1 if (1=$increment(^%ydbAIMDPgQyctQBh0d91zI84zuF52(j,""""))),$increment(^%ydbAIMDPgQyctQBh0d91zI84zuF52(j))"_$C(10)_" if inccnt set inccnt=inccnt+^%ydbAIMDPgQyctQBh0d91zI84zuF52(11),^(11)=$select(1>inccnt:0,1:inccnt)"_$C(10)
^%ydbAIMDPgQyctQBh0d91zI84zuF52(7)="+^ORD(sub1=100.01,sub2=0:""A"",sub3=0) -command=kill -name=%ydbPgQyctQBh0d91zI84zuF52K -xecute=<<"_$C(10)_" do dft($reference) quit"_$C(10)_" if ^%ydbAIMDPgQyctQBh0d91zI84zuF52"_$C(10)_"dft(var)"_$C(10)_" new sub,vard,vars,varsd,vsroot"_$C(10)_" set vard=$data(@var)"_$C(10)_" do:vard\10"_$C(10)_" . if $qlength(var) set vsroot=$zextract(var,1,$zlength(var)-1)_"","""_$C(10)_" . else  set vsroot=var_""("""_$C(10)_" . set vars=vsroot_""sub)"""_$C(10)_" . set sub="""" for  do  set sub=$order(@vars) quit:'$zlength(sub)"_$C(10)_" . . set varsd=$data(@vars)"_$C(10)_" . . if varsd\10 do dft(vsroot_$zwrite(sub)_"")"")"_$C(10)_" . . else  kill:varsd#10 @(vsroot_$zwrite(sub)_"")"")"_$C(10)_" zkill:vard#10 @var"_$C(10)_" quit"_$C(10)
^%ydbAIMDPgQyctQBh0d91zI84zuF52(8)="+^ORD(sub1=100.01,sub2=0:""A"",sub3=0) -command=zkill -name=%ydbPgQyctQBh0d91zI84zuF52Z -xecute=<<"_$C(10)_" set inccnt=0"_$C(10)_" for i=2 set j=-i,p=$piece($ztoldval,""^"",i) if $data(^%ydbAIMDPgQyctQBh0d91zI84zuF52(i,p,sub2)) zkill ^(sub2) set inccnt=inccnt-1 if 1>$increment(^%ydbAIMDPgQyctQBh0d91zI84zuF52(j,p),-1) zkill ^(p) zkill:1>$increment(^%ydbAIMDPgQyctQBh0d91zI84zuF52(j),-1) ^(j)"_$C(10)_" if inccnt set inccnt=inccnt+^%ydbAIMDPgQyctQBh0d91zI84zuF52(11),^(11)=$select(1>inccnt:0,1:inccnt)"_$C(10)
_ydboctoX*.m:    NEW global SET global=$NAME(^ORD(100.01,$zwrite(0)_":"_$zwrite("A"),0))

Test ENDPOINT with a ""
-- Test various ENDPOINTs with AIM: Test empty string
DROP TABLE IF EXISTS `ORDER_STATUS`;
CREATE TABLE `ORDER_STATUS` (
 `ORDER_STATUS_ID` INTEGER PRIMARY KEY START 0 ENDPOINT '""',
 `NAME` CHARACTER(20) NOT NULL GLOBAL "^ORD(100.01,keys(""order_status_id""),0)" PIECE 1,
 `SHORT_NAME` CHARACTER(4) GLOBAL "^ORD(100.01,keys(""order_status_id""),0)" PIECE 2,
 `ABBREVIATION` CHARACTER(3) GLOBAL "^ORD(100.01,keys(""order_status_id""),.1)" EXTRACT "$E($G(^ORD(100.01,keys(""order_status_id""),.1)),1,245)",
 `MASTER_ENTRY_FOR_VUID` CHARACTER(3) GLOBAL "^ORD(100.01,keys(""order_status_id""),""VUID"")" PIECE 2,
 `VUID` CHARACTER(20) GLOBAL "^ORD(100.01,keys(""order_status_id""),""VUID"")" PIECE 1
)
GLOBAL "^ORD(100.01,keys(""order_status_id""))"
DELIM "^";
SELECT * FROM `ORDER_STATUS` WHERE SHORT_NAME = 'flag';
DROP TABLE
CREATE TABLE
order_status_id|name|short_name|abbreviation|master_entry_for_vuid|vuid
(0 rows)
^%ydbAIMDVkUew77nQzoJFfkquc2jF9(2,"actv",6)=""
^%ydbAIMDVkUew77nQzoJFfkquc2jF9(2,"canc",13)=""
^%ydbAIMDVkUew77nQzoJFfkquc2jF9(2,"comp",2)=""
^%ydbAIMDVkUew77nQzoJFfkquc2jF9(2,"dc",1)=""
^%ydbAIMDVkUew77nQzoJFfkquc2jF9(2,"dc/e",12)=""
^%ydbAIMDVkUew77nQzoJFfkquc2jF9(2,"dlay",10)=""
^%ydbAIMDVkUew77nQzoJFfkquc2jF9(2,"exp",7)=""
^%ydbAIMDVkUew77nQzoJFfkquc2jF9(2,"flag",4)=""
^%ydbAIMDVkUew77nQzoJFfkquc2jF9(2,"hold",3)=""
^%ydbAIMDVkUew77nQzoJFfkquc2jF9(2,"laps",14)=""
^%ydbAIMDVkUew77nQzoJFfkquc2jF9(2,"none",99)=""
^%ydbAIMDVkUew77nQzoJFfkquc2jF9(2,"part",9)=""
^%ydbAIMDVkUew77nQzoJFfkquc2jF9(2,"pend",5)=""
^%ydbAIMDVkUew77nQzoJFfkquc2jF9(2,"rnew",15)=""
^%ydbAIMDVkUew77nQzoJFfkquc2jF9(2,"schd",8)=""
^%ydbAIMDVkUew77nQzoJFfkquc2jF9(2,"unr",11)=""
^%ydbAIMDVkUew77nQzoJFfkquc2jF9(6)="+^ORD(sub1=100.01,sub2=0:,sub3=0) -command=set -name=%ydbVkUew77nQzoJFfkquc2jF9S -xecute=<<"_$C(10)_" set inccnt=0"_$C(10)_" for i=2 set p=$piece($ztoldval,""^"",i),q=$piece($ztvalue,""^"",i),j=-i do"_$C(10)_" . if p'=q do"_$C(10)_" . . if $data(^%ydbAIMDVkUew77nQzoJFfkquc2jF9(i,p,sub2))#10 zkill ^(sub2) set inccnt=inccnt-1 if 1>$increment(^%ydbAIMDVkUew77nQzoJFfkquc2jF9(j,p),-1) zkill ^(p) if 1>$increment(^%ydbAIMDVkUew77nQzoJFfkquc2jF9(j),-1) zkill ^(j)"_$C(10)_" . . if '($data(^%ydbAIMDVkUew77nQzoJFfkquc2jF9(i,q,sub2))#10) set ^(sub2)="""" set inccnt=inccnt+1 if (1=$increment(^%ydbAIMDVkUew77nQzoJFfkquc2jF9(j,q))),$increment(^%ydbAIMDVkUew77nQzoJFfkquc2jF9(j))"_$C(10)_" . else  if '$zlength(q),'($data(^%ydbAIMDVkUew77nQzoJFfkquc2jF9(i,"""",sub2))#10) set ^(sub2)="""" set inccnt=inccnt+1 if (1=$increment(^%ydbAIMDVkUew77nQzoJFfkquc2jF9(j,""""))),$increment(^%ydbAIMDVkUew77nQzoJFfkquc2jF9(j))"_$C(10)_" if inccnt set inccnt=inccnt+^%ydbAIMDVkUew77nQzoJFfkquc2jF9(11),^(11)=$select(1>inccnt:0,1:inccnt)"_$C(10)
^%ydbAIMDVkUew77nQzoJFfkquc2jF9(7)="+^ORD(sub1=100.01,sub2=0:,sub3=0) -command=kill -name=%ydbVkUew77nQzoJFfkquc2jF9K -xecute=<<"_$C(10)_" do dft($reference) quit"_$C(10)_" if ^%ydbAIMDVkUew77nQzoJFfkquc2jF9"_$C(10)_"dft(var)"_$C(10)_" new sub,vard,vars,varsd,vsroot"_$C(10)_" set vard=$data(@var)"_$C(10)_" do:vard\10"_$C(10)_" . if $qlength(var) set vsroot=$zextract(var,1,$zlength(var)-1)_"","""_$C(10)_" . else  set vsroot=var_""("""_$C(10)_" . set vars=vsroot_""sub)"""_$C(10)_" . set sub="""" for  do  set sub=$order(@vars) quit:'$zlength(sub)"_$C(10)_" . . set varsd=$data(@vars)"_$C(10)_" . . if varsd\10 do dft(vsroot_$zwrite(sub)_"")"")"_$C(10)_" . . else  kill:varsd#10 @(vsroot_$zwrite(sub)_"")"")"_$C(10)_" zkill:vard#10 @var"_$C(10)_" quit"_$C(10)
^%ydbAIMDVkUew77nQzoJFfkquc2jF9(8)="+^ORD(sub1=100.01,sub2=0:,sub3=0) -command=zkill -name=%ydbVkUew77nQzoJFfkquc2jF9Z -xecute=<<"_$C(10)_" set inccnt=0"_$C(10)_" for i=2 set j=-i,p=$piece($ztoldval,""^"",i) if $data(^%ydbAIMDVkUew77nQzoJFfkquc2jF9(i,p,sub2)) zkill ^(sub2) set inccnt=inccnt-1 if 1>$increment(^%ydbAIMDVkUew77nQzoJFfkquc2jF9(j,p),-1) zkill ^(p) zkill:1>$increment(^%ydbAIMDVkUew77nQzoJFfkquc2jF9(j),-1) ^(j)"_$C(10)_" if inccnt set inccnt=inccnt+^%ydbAIMDVkUew77nQzoJFfkquc2jF9(11),^(11)=$select(1>inccnt:0,1:inccnt)"_$C(10)
_ydboctoX*.m:    NEW global SET global=$NAME(^ORD(100.01,$zwrite(0)_":",0))

Test ENDPOINT with a 3
-- Test various ENDPOINTs with AIM: Test "3"
DROP TABLE IF EXISTS `ORDER_STATUS`;
CREATE TABLE `ORDER_STATUS` (
 `ORDER_STATUS_ID` INTEGER PRIMARY KEY START 0 ENDPOINT 3,
 `NAME` CHARACTER(20) NOT NULL GLOBAL "^ORD(100.01,keys(""order_status_id""),0)" PIECE 1,
 `SHORT_NAME` CHARACTER(4) GLOBAL "^ORD(100.01,keys(""order_status_id""),0)" PIECE 2,
 `ABBREVIATION` CHARACTER(3) GLOBAL "^ORD(100.01,keys(""order_status_id""),.1)" EXTRACT "$E($G(^ORD(100.01,keys(""order_status_id""),.1)),1,245)",
 `MASTER_ENTRY_FOR_VUID` CHARACTER(3) GLOBAL "^ORD(100.01,keys(""order_status_id""),""VUID"")" PIECE 2,
 `VUID` CHARACTER(20) GLOBAL "^ORD(100.01,keys(""order_status_id""),""VUID"")" PIECE 1
)
GLOBAL "^ORD(100.01,keys(""order_status_id""))"
DELIM "^";
SELECT * FROM `ORDER_STATUS` WHERE SHORT_NAME = 'hold'; -- Record 3
SELECT * FROM `ORDER_STATUS` WHERE SHORT_NAME = 'flag'; -- Record 4
DROP TABLE
CREATE TABLE
order_status_id|name|short_name|abbreviation|master_entry_for_vuid|vuid
3|HOLD|hold|h|1|4500752
(1 row)
order_status_id|name|short_name|abbreviation|master_entry_for_vuid|vuid
(0 rows)
^%ydbAIMDJDL1RcgmPlUwXLrNnsHODE(2,"comp",2)=""
^%ydbAIMDJDL1RcgmPlUwXLrNnsHODE(2,"dc",1)=""
^%ydbAIMDJDL1RcgmPlUwXLrNnsHODE(2,"hold",3)=""
^%ydbAIMDJDL1RcgmPlUwXLrNnsHODE(6)="+^ORD(sub1=100.01,sub2=0:3,sub3=0) -command=set -name=%ydbJDL1RcgmPlUwXLrNnsHODES -xecute=<<"_$C(10)_" set inccnt=0"_$C(10)_" for i=2 set p=$piece($ztoldval,""^"",i),q=$piece($ztvalue,""^"",i),j=-i do"_$C(10)_" . if p'=q do"_$C(10)_" . . if $data(^%ydbAIMDJDL1RcgmPlUwXLrNnsHODE(i,p,sub2))#10 zkill ^(sub2) set inccnt=inccnt-1 if 1>$increment(^%ydbAIMDJDL1RcgmPlUwXLrNnsHODE(j,p),-1) zkill ^(p) if 1>$increment(^%ydbAIMDJDL1RcgmPlUwXLrNnsHODE(j),-1) zkill ^(j)"_$C(10)_" . . if '($data(^%ydbAIMDJDL1RcgmPlUwXLrNnsHODE(i,q,sub2))#10) set ^(sub2)="""" set inccnt=inccnt+1 if (1=$increment(^%ydbAIMDJDL1RcgmPlUwXLrNnsHODE(j,q))),$increment(^%ydbAIMDJDL1RcgmPlUwXLrNnsHODE(j))"_$C(10)_" . else  if '$zlength(q),'($data(^%ydbAIMDJDL1RcgmPlUwXLrNnsHODE(i,"""",sub2))#10) set ^(sub2)="""" set inccnt=inccnt+1 if (1=$increment(^%ydbAIMDJDL1RcgmPlUwXLrNnsHODE(j,""""))),$increment(^%ydbAIMDJDL1RcgmPlUwXLrNnsHODE(j))"_$C(10)_" if inccnt set inccnt=inccnt+^%ydbAIMDJDL1RcgmPlUwXLrNnsHODE(11),^(11)=$select(1>inccnt:0,1:inccnt)"_$C(10)
^%ydbAIMDJDL1RcgmPlUwXLrNnsHODE(7)="+^ORD(sub1=100.01,sub2=0:3,sub3=0) -command=kill -name=%ydbJDL1RcgmPlUwXLrNnsHODEK -xecute=<<"_$C(10)_" do dft($reference) quit"_$C(10)_" if ^%ydbAIMDJDL1RcgmPlUwXLrNnsHODE"_$C(10)_"dft(var)"_$C(10)_" new sub,vard,vars,varsd,vsroot"_$C(10)_" set vard=$data(@var)"_$C(10)_" do:vard\10"_$C(10)_" . if $qlength(var) set vsroot=$zextract(var,1,$zlength(var)-1)_"","""_$C(10)_" . else  set vsroot=var_""("""_$C(10)_" . set vars=vsroot_""sub)"""_$C(10)_" . set sub="""" for  do  set sub=$order(@vars) quit:'$zlength(sub)"_$C(10)_" . . set varsd=$data(@vars)"_$C(10)_" . . if varsd\10 do dft(vsroot_$zwrite(sub)_"")"")"_$C(10)_" . . else  kill:varsd#10 @(vsroot_$zwrite(sub)_"")"")"_$C(10)_" zkill:vard#10 @var"_$C(10)_" quit"_$C(10)
^%ydbAIMDJDL1RcgmPlUwXLrNnsHODE(8)="+^ORD(sub1=100.01,sub2=0:3,sub3=0) -command=zkill -name=%ydbJDL1RcgmPlUwXLrNnsHODEZ -xecute=<<"_$C(10)_" set inccnt=0"_$C(10)_" for i=2 set j=-i,p=$piece($ztoldval,""^"",i) if $data(^%ydbAIMDJDL1RcgmPlUwXLrNnsHODE(i,p,sub2)) zkill ^(sub2) set inccnt=inccnt-1 if 1>$increment(^%ydbAIMDJDL1RcgmPlUwXLrNnsHODE(j,p),-1) zkill ^(p) zkill:1>$increment(^%ydbAIMDJDL1RcgmPlUwXLrNnsHODE(j),-1) ^(j)"_$C(10)_" if inccnt set inccnt=inccnt+^%ydbAIMDJDL1RcgmPlUwXLrNnsHODE(11),^(11)=$select(1>inccnt:0,1:inccnt)"_$C(10)
_ydboctoX*.m:    NEW global SET global=$NAME(^ORD(100.01,$zwrite(0)_":"_$zwrite(3),0))

Test ENDPOINT with a $CHAR(0)
-- Test various ENDPOINTs with AIM: Test $CHAR(0)
DROP TABLE IF EXISTS `ORDER_STATUS`;
CREATE TABLE `ORDER_STATUS` (
 `ORDER_STATUS_ID` INTEGER PRIMARY KEY START 0 ENDPOINT '$CHAR(0)',
 `NAME` CHARACTER(20) NOT NULL GLOBAL "^ORD(100.01,keys(""order_status_id""),0)" PIECE 1,
 `SHORT_NAME` CHARACTER(4) GLOBAL "^ORD(100.01,keys(""order_status_id""),0)" PIECE 2,
 `ABBREVIATION` CHARACTER(3) GLOBAL "^ORD(100.01,keys(""order_status_id""),.1)" EXTRACT "$E($G(^ORD(100.01,keys(""order_status_id""),.1)),1,245)",
 `MASTER_ENTRY_FOR_VUID` CHARACTER(3) GLOBAL "^ORD(100.01,keys(""order_status_id""),""VUID"")" PIECE 2,
 `VUID` CHARACTER(20) GLOBAL "^ORD(100.01,keys(""order_status_id""),""VUID"")" PIECE 1
)
GLOBAL "^ORD(100.01,keys(""order_status_id""))"
DELIM "^";
SELECT * FROM `ORDER_STATUS` WHERE SHORT_NAME = 'flag';
DROP TABLE
CREATE TABLE
order_status_id|name|short_name|abbreviation|master_entry_for_vuid|vuid
4|FLAGGED|flag|"?"|1|4501095
(1 row)
^%ydbAIMDF7zoe809RTQSzWQBqLPdGI(2,"actv",6)=""
^%ydbAIMDF7zoe809RTQSzWQBqLPdGI(2,"canc",13)=""
^%ydbAIMDF7zoe809RTQSzWQBqLPdGI(2,"comp",2)=""
^%ydbAIMDF7zoe809RTQSzWQBqLPdGI(2,"dc",1)=""
^%ydbAIMDF7zoe809RTQSzWQBqLPdGI(2,"dc/e",12)=""
^%ydbAIMDF7zoe809RTQSzWQBqLPdGI(2,"dlay",10)=""
^%ydbAIMDF7zoe809RTQSzWQBqLPdGI(2,"exp",7)=""
^%ydbAIMDF7zoe809RTQSzWQBqLPdGI(2,"flag",4)=""
^%ydbAIMDF7zoe809RTQSzWQBqLPdGI(2,"hold",3)=""
^%ydbAIMDF7zoe809RTQSzWQBqLPdGI(2,"laps",14)=""
^%ydbAIMDF7zoe809RTQSzWQBqLPdGI(2,"none",99)=""
^%ydbAIMDF7zoe809RTQSzWQBqLPdGI(2,"part",9)=""
^%ydbAIMDF7zoe809RTQSzWQBqLPdGI(2,"pend",5)=""
^%ydbAIMDF7zoe809RTQSzWQBqLPdGI(2,"rnew",15)=""
^%ydbAIMDF7zoe809RTQSzWQBqLPdGI(2,"schd",8)=""
^%ydbAIMDF7zoe809RTQSzWQBqLPdGI(2,"unr",11)=""
^%ydbAIMDF7zoe809RTQSzWQBqLPdGI(6)="+^ORD(sub1=100.01,sub2=0:$C(0),sub3=0) -command=set -name=%ydbF7zoe809RTQSzWQBqLPdGIS -xecute=<<"_$C(10)_" set inccnt=0"_$C(10)_" for i=2 set p=$piece($ztoldval,""^"",i),q=$piece($ztvalue,""^"",i),j=-i do"_$C(10)_" . if p'=q do"_$C(10)_" . . if $data(^%ydbAIMDF7zoe809RTQSzWQBqLPdGI(i,p,sub2))#10 zkill ^(sub2) set inccnt=inccnt-1 if 1>$increment(^%ydbAIMDF7zoe809RTQSzWQBqLPdGI(j,p),-1) zkill ^(p) if 1>$increment(^%ydbAIMDF7zoe809RTQSzWQBqLPdGI(j),-1) zkill ^(j)"_$C(10)_" . . if '($data(^%ydbAIMDF7zoe809RTQSzWQBqLPdGI(i,q,sub2))#10) set ^(sub2)="""" set inccnt=inccnt+1 if (1=$increment(^%ydbAIMDF7zoe809RTQSzWQBqLPdGI(j,q))),$increment(^%ydbAIMDF7zoe809RTQSzWQBqLPdGI(j))"_$C(10)_" . else  if '$zlength(q),'($data(^%ydbAIMDF7zoe809RTQSzWQBqLPdGI(i,"""",sub2))#10) set ^(sub2)="""" set inccnt=inccnt+1 if (1=$increment(^%ydbAIMDF7zoe809RTQSzWQBqLPdGI(j,""""))),$increment(^%ydbAIMDF7zoe809RTQSzWQBqLPdGI(j))"_$C(10)_" if inccnt set inccnt=inccnt+^%ydbAIMDF7zoe809RTQSzWQBqLPdGI(11),^(11)=$select(1>inccnt:0,1:inccnt)"_$C(10)
^%ydbAIMDF7zoe809RTQSzWQBqLPdGI(7)="+^ORD(sub1=100.01,sub2=0:$C(0),sub3=0) -command=kill -name=%ydbF7zoe809RTQSzWQBqLPdGIK -xecute=<<"_$C(10)_" do dft($reference) quit"_$C(10)_" if ^%ydbAIMDF7zoe809RTQSzWQBqLPdGI"_$C(10)_"dft(var)"_$C(10)_" new sub,vard,vars,varsd,vsroot"_$C(10)_" set vard=$data(@var)"_$C(10)_" do:vard\10"_$C(10)_" . if $qlength(var) set vsroot=$zextract(var,1,$zlength(var)-1)_"","""_$C(10)_" . else  set vsroot=var_""("""_$C(10)_" . set vars=vsroot_""sub)"""_$C(10)_" . set sub="""" for  do  set sub=$order(@vars) quit:'$zlength(sub)"_$C(10)_" . . set varsd=$data(@vars)"_$C(10)_" . . if varsd\10 do dft(vsroot_$zwrite(sub)_"")"")"_$C(10)_" . . else  kill:varsd#10 @(vsroot_$zwrite(sub)_"")"")"_$C(10)_" zkill:vard#10 @var"_$C(10)_" quit"_$C(10)
^%ydbAIMDF7zoe809RTQSzWQBqLPdGI(8)="+^ORD(sub1=100.01,sub2=0:$C(0),sub3=0) -command=zkill -name=%ydbF7zoe809RTQSzWQBqLPdGIZ -xecute=<<"_$C(10)_" set inccnt=0"_$C(10)_" for i=2 set j=-i,p=$piece($ztoldval,""^"",i) if $data(^%ydbAIMDF7zoe809RTQSzWQBqLPdGI(i,p,sub2)) zkill ^(sub2) set inccnt=inccnt-1 if 1>$increment(^%ydbAIMDF7zoe809RTQSzWQBqLPdGI(j,p),-1) zkill ^(p) zkill:1>$increment(^%ydbAIMDF7zoe809RTQSzWQBqLPdGI(j),-1) ^(j)"_$C(10)_" if inccnt set inccnt=inccnt+^%ydbAIMDF7zoe809RTQSzWQBqLPdGI(11),^(11)=$select(1>inccnt:0,1:inccnt)"_$C(10)
_ydboctoX*.m:    NEW global SET global=$NAME(^ORD(100.01,$zwrite(0)_":"_$zwrite($CHAR(0)),0))
